data.000
4
0 27 78
140 7 67
14 36 54
133 76 5

SchrPmtn:
221

Schr:
283
1 3 4 2

data.001
50
0 26 426
657 31 1441
1676 16 326
737 34 1476
453 38 263
357 84 585
639 67 1329
895 56 413
1609 8 1290
297 64 90
784 49 946
1708 44 245
580 26 1219
1166 88 574
1723 14 115
1725 27 738
1726 46 1254
207 51 1893
704 66 875
1722 37 803
353 18 1238
1447 47 1442
1227 63 1730
1805 3 695
158 55 360
1098 64 6
875 81 214
27 63 1023
1387 18 853
31 97 1032
623 26 77
1009 64 1595
918 66 1468
1170 49 1362
928 14 282
1646 10 612
718 93 407
1771 19 1196
1889 68 742
969 59 412
1215 98 228
1086 8 746
980 60 448
1333 48 156
25 26 822
967 98 1713
926 82 1148
411 25 1760
631 35 1278
1132 9 1027

SchrPmtn:
3026

Schr:
3109
1 45 30 28 18 25 10 21 6 48 5 13 31 7 2 4 49 11 19 33 46 32 47 23 34 50 42 14 22 29 43 8 9 36 40 37 17 38 20 39 16 24 3 35 12 41 27 44 15 26

data.002
50
13 49 801
1320 77 467
580 5 802
1255 71 90
1116 36 1785
145 27 1442
1214 69 1050
1875 13 1755
1776 64 1416
267 25 1226
497 21 824
1280 28 360
868 13 248
1458 90 1291
942 45 63
1555 57 1469
835 17 1867
852 76 699
826 20 308
270 29 333
542 97 578
210 27 1352
1282 66 260
1428 62 526
528 33 224
1489 18 1851
1158 24 1565
134 93 881
610 74 770
1733 52 316
1416 95 363
1243 99 1467
1533 84 875
1362 75 1580
327 57 1836
1735 51 40
469 66 1533
1 92 128
1174 31 524
1512 52 979
1690 9 1204
1424 60 421
900 64 1571
1520 78 964
1889 22 1416
803 77 1015
1045 42 219
1613 30 146
649 89 984
1864 37 1740

SchrPmtn:
3654

Schr:
3708
38 1 28 6 22 10 20 35 37 11 21 49 3 29 46 17 43 18 19 13 25 5 47 27 7 32 34 14 26 16 40 44 41 33 9 8 50 45 24 39 2 42 31 12 30 23 48 4 15 36

data.003
50
1561 327 1421
0 20 0
0 60 0
0 25 0
0 27 0
0 48 0
0 81 0
0 72 0
0 28 0
0 47 0
0 81 0
0 86 0
0 34 0
0 75 0
0 34 0
0 86 0
0 85 0
0 61 0
0 57 0
0 41 0
0 98 0
0 59 0
0 55 0
0 44 0
0 41 0
0 63 0
0 62 0
0 58 0
0 77 0
0 97 0
0 85 0
0 84 0
0 22 0
0 97 0
0 62 0
0 91 0
0 20 0
0 64 0
0 24 0
0 90 0
0 61 0
0 72 0
0 22 0
0 78 0
0 57 0
0 99 0
0 57 0
0 76 0
0 34 0
0 85 0

SchrPmtn:
3309

Schr:
3353
2 3 4 5 6 7 8 9 10 11 12 13 14 15 16 17 18 19 20 21 22 23 24 25 26 27 28 29 1 30 31 32 33 34 35 36 37 38 39 40 41 42 43 44 45 46 47 48 49 50

data.004
50
8 37 1828
1533 28 881
1818 98 450
1100 74 1189
272 81 1204
985 57 781
1325 30 417
989 48 266
1622 93 1322
1322 37 1486
1166 74 732
374 77 148
954 42 1643
644 55 2
160 67 608
1233 92 1781
499 7 383
1407 25 991
1632 41 1472
678 97 1337
696 10 1587
1531 35 92
952 99 131
490 90 215
1459 62 1036
242 18 1327
660 33 645
1586 10 921
961 73 1628
1256 69 288
1179 52 250
201 71 1420
232 19 606
40 87 221
1088 18 155
1061 78 1786
455 63 801
1466 77 746
73 49 1039
1723 53 1396
261 34 1366
741 40 1381
789 47 1242
1806 25 1196
269 41 136
316 35 1019
870 51 251
854 67 1693
824 23 499
1305 47 1746

SchrPmtn:
3172

Schr:
3235
1 34 39 15 32 41 26 5 46 37 33 17 24 27 21 20 42 43 48 13 29 36 4 6 16 50 10 25 18 2 38 19 9 40 44 28 11 49 3 7 30 8 47 31 35 12 45 23 22 14

data.005
50
19 3 1811
694 60 689
859 34 1703
152 80 855
1502 43 1327
1263 43 1696
1310 89 892
956 83 1161
616 11 332
543 56 56
1449 43 479
1885 86 1484
1788 98 918
874 45 1097
1175 7 382
762 65 1613
821 79 1797
1682 54 485
1246 96 332
928 33 1568
911 31 827
1819 83 1444
1892 59 1667
1459 41 1183
95 26 1378
1545 16 680
1037 71 1416
179 39 1264
1326 96 92
293 31 1549
1245 62 103
1058 58 164
995 34 138
1486 44 520
129 15 1007
1095 10 901
1460 55 1213
1057 64 1136
1770 3 572
733 40 1138
1753 84 1624
697 54 224
376 29 857
72 78 1702
343 53 1467
431 17 1102
1016 56 550
1331 65 712
1039 27 453
1701 98 1409

SchrPmtn:
3618

Schr:
3625
1 44 25 35 28 4 30 45 43 46 10 9 2 40 16 17 3 20 8 27 38 14 6 36 7 21 48 5 37 24 26 47 50 41 23 12 22 13 39 34 18 11 49 15 19 42 32 33 31 29

data.006
50
12 55 76
963 54 678
201 88 437
192 64 1382
155 1 577
108 63 447
1077 15 311
543 8 1242
751 81 934
1281 95 1833
684 38 1115
848 23 1653
831 69 1407
1757 11 1645
674 22 1387
1664 62 1164
1701 49 1636
1830 60 1282
8 87 150
193 46 108
1461 66 373
792 18 230
1096 49 1309
1400 57 294
829 20 181
382 20 1079
1571 86 1011
1037 85 1233
532 93 649
1109 56 1413
1687 12 612
1428 80 465
1493 62 279
892 22 24
1220 45 975
76 94 1470
1719 77 1601
222 22 945
243 6 782
624 91 1228
1334 42 816
1097 77 1813
1324 33 999
393 46 318
1466 89 969
109 79 953
1180 91 1878
1675 48 5
907 11 1661
1079 23 1324

SchrPmtn:
3439

Schr:
3446
19 36 46 4 38 39 5 6 26 3 29 8 40 15 11 9 12 13 49 2 44 28 42 47 10 30 50 23 43 27 35 17 14 37 18 16 45 41 31 32 21 7 24 33 22 25 20 1 34 48

data.007
50
8 68 984
747 60 1241
811 78 56
1760 58 1558
860 16 319
1549 28 927
1010 96 749
738 37 844
599 20 1170
446 53 1509
1363 36 19
1277 14 685
1574 98 1472
1886 3 1571
591 21 1587
714 25 1490
1881 43 1647
983 62 514
858 8 1215
634 7 587
784 14 1897
1893 22 1878
308 89 1039
1892 91 1815
1024 75 1602
1467 59 378
1830 3 1173
167 25 702
357 3 416
1739 68 71
1810 58 1220
453 62 393
462 60 22
332 25 1512
845 96 1176
522 80 513
1110 61 1854
484 32 570
545 91 274
64 67 74
90 9 1423
1013 67 1567
1509 86 878
238 12 285
1226 23 1767
83 35 22
626 97 63
6 24 707
507 31 1294
638 98 1528

SchrPmtn:
3820

Schr:
3862
48 1 41 40 28 46 44 23 34 29 10 38 49 36 15 50 16 21 2 19 35 9 8 42 25 37 7 45 12 20 18 32 26 43 13 6 5 4 31 17 22 24 14 27 39 30 47 3 33 11

data.008
50
31 44 451
785 61 951
972 54 849
469 6 1250
78 40 1803
365 39 228
1658 96 409
194 32 634
1660 39 1092
582 11 557
402 5 1096
742 36 613
1416 92 441
36 30 875
476 53 532
388 64 1096
103 84 76
703 90 1245
571 66 1458
1315 88 1562
653 47 219
104 3 736
582 99 1175
818 48 748
397 53 553
1044 41 1665
1161 81 854
979 23 1188
208 27 1243
24 86 1274
589 44 49
1511 79 922
1705 13 1806
1589 12 1556
803 42 1691
85 24 407
262 81 998
1758 30 388
825 23 1051
953 60 218
1014 98 534
1007 28 688
1819 37 1513
1763 36 781
1523 74 1703
1704 46 1775
1081 63 1306
1190 57 436
77 95 1845
1706 95 1804

SchrPmtn:
3633

Schr:
3645
30 49 5 29 37 14 22 8 16 4 11 25 15 19 23 18 35 39 2 28 3 26 47 27 24 42 20 12 10 41 45 34 32 33 50 46 43 9 44 1 13 48 7 36 38 6 21 40 17 31

